Models – Colby Forecasting
…
# A tibble: 4 × 4
  .metric    .estimator .estimate .config             
  <chr>      <chr>          <dbl> <chr>               
1 accuracy   binary         0.733 Preprocessor1_Model1
2 boyce_cont binary         0.921 Preprocessor1_Model1
3 roc_auc    binary         0.813 Preprocessor1_Model1
4 tss_max    binary         0.545 Preprocessor1_Model1

6.3.0.3 .predictions

Here we can see the testing data predictions. Ultimately we are interested in .pred_class and class, but there’s a lot of data to explore in here.

rf$.predictions[[1]]

# A tibble: 3,181 × 6
   .pred_presence .pred_background  .row .pred_class class      .config         
            <dbl>            <dbl> <int> <fct>       <fct>      <chr>           
 1          0.161            0.839     2 background  presence   Preprocessor1_M…
 2          0                1         3 background  presence   Preprocessor1_M…
 3          0                1         4 background  presence   Preprocessor1_M…
 4          0                1         7 background  background Preprocessor1_M…
 5          0                1        12 background  background Preprocessor1_M…
 6          0                1        15 background  background Preprocessor1_M…
 7          0                1        22 background  background Preprocessor1_M…
 8          0                1        24 background  background Preprocessor1_M…
 9          0                1        26 background  background Preprocessor1_M…
10          0                1        27 background  background Preprocessor1_M…
# ℹ 3,171 more rows
…
